# Decay: B --> D*(2007)b pi pi pi 
#        0 --> 1         2  3  4  

<Options>
  AlwaysIntegrate = 0    # 0...read results and skip integration
                         # 1...don't read results and integrate
</Options>

<Phasespace>
  1.0 Isotropic
</Phasespace>

<ME>
  1.0 0.0 Generic
</ME>

<Result>
  8.023e-07 3.46e-09 2.142e-05;
</Result>
