# Decay: B --> D(s)*+ Db pi- pi 
#        0 --> 1      2  3   4  

<Options>
  AlwaysIntegrate = 0    # 0...read results and skip integration
                         # 1...don't read results and integrate
</Options>

<Phasespace>
  1.0 Isotropic
</Phasespace>

<ME>
  1.0 0.0 Generic
</ME>

<Result>
  1.385e-07 6.684e-10 1.281e-05;
</Result>
