# Decay: B+ --> K+ rho(770) pi pi 
#        0  --> 1  2        3  4  

<Options>
  AlwaysIntegrate = 0    # 0...read results and skip integration
                         # 1...don't read results and integrate
</Options>

<Phasespace>
  0.5 TwoResonances_K(1)(1400)+_3_K*(892)+_14;
  0.5 TwoResonances_K(1)(1400)+_4_K*(892)+_13;
</Phasespace>

<ME>
  GF 0.0 VA_P_V[0,2] VA_0_PPP[4,3,1]
</ME>

<VA_P_V[0,2]>
  # Form factor model to be used (1=ISGW, 2=ISGW2, 5=hep-ph/0412079)
  FORM_FACTOR = 2
</VA_P_V[0,2]>

<VA_0_PPP[4,3,1]>
  FORM_FACTOR   = 1     ! 1=KuehnSantamaria
  RUNNING_WIDTH = 3     ! 0=Off, 1=axial, 2=vector, 3=both resonances
   
  # parameters for resonances
  Mass_K*(892)+         = 0.89166
  Width_K*(892)+        = 0.0508
  Mass_K(1)(1400)+  = 1.402
  Width_K(1)(1400)+     = 0.174
</VA_0_PPP[4,3,1]>


<Result>
  1.395e-19 6.579e-22 7.124e-17;
</Result>
