# Decay: B+ --> psi(2S) K(1)(1270)+ 
#        0  --> 1       2           

<Options>
  AlwaysIntegrate = 0    # 0...read results and skip integration
                         # 1...don't read results and integrate
</Options>

<Phasespace>
  1.0 Isotropic
</Phasespace>

<ME>
  1.0 0.0 Generic
</ME>

<Result>
  0.1175 0 1.241;
</Result>
