# Decay: Lambda(b) --> Lambda(c)+ K*(892)+b 
#        0         --> 1          2         

<Options>
  AlwaysIntegrate = 0    # 0...read results and skip integration
                         # 1...don't read results and integrate
</Options>

<Phasespace>
  1.0 Isotropic
</Phasespace>

<ME>
  1.0 0.0 Generic
</ME>

<Result>
  2.362 0 26.57;
</Result>
