# Decay: B(s) --> D*(2010)+ D- Kb pi 
#        0    --> 1         2  3  4  

<Options>
  AlwaysIntegrate = 0    # 0...read results and skip integration
                         # 1...don't read results and integrate
</Options>

<Phasespace>
  1.0 Isotropic
</Phasespace>

<ME>
  1.0 0.0 Generic
</ME>

<Result>
  9.541e-08 4.683e-10 6.508e-06;
</Result>
