# Decay: B(s) --> J/psi(1S) K+ K- 
#        0    --> 1         2  3  

<Options>
  AlwaysIntegrate = 0    # 0...read results and skip integration
                         # 1...don't read results and integrate
</Options>

<Phasespace>
  1.0 Isotropic
</Phasespace>

<ME>
  1.0 0.0 Generic
</ME>

<Result>
  8.346e-05 3.098e-07 0.00197;
</Result>
