# Decay: B(s) --> K- nu_mu mu+ 
#        0    --> 1  2     3   

<Options>
  AlwaysIntegrate = 0    # 0...read results and skip integration
                         # 1...don't read results and integrate
</Options>

<Phasespace>
  1.0 Isotropic
</Phasespace>

<ME>
  1.0 0.0 Generic
</ME>

<Result>
  0.001235 1.398e-06 0.01415;
</Result>
