# Decay: a(2)(1320)+ --> K+ K(S)b 
#        0           --> 1  2     

<Options>
  AlwaysIntegrate = 0    # 0...read results and skip integration
                         # 1...don't read results and integrate
</Options>

<Phasespace>
  1.0 Isotropic
</Phasespace>

<ME>
  1.0 0.0 Generic
</ME>

<Result>
  4.72e-05 0 0.0001244;
</Result>
